<?xml version="1.0" encoding="UTF-8" standalone="no"?>
<svg
   version="1.1"
   width="840.26361"
   height="547.61597"
   id="svg182"
   sodipodi:docname="awz-people-venn-diagram.svg"
   inkscape:version="1.3.2 (1:1.3.2+202311252150+091e20ef0f)"
   xmlns:inkscape="http://www.inkscape.org/namespaces/inkscape"
   xmlns:sodipodi="http://sodipodi.sourceforge.net/DTD/sodipodi-0.dtd"
   xmlns="http://www.w3.org/2000/svg"
   xmlns:svg="http://www.w3.org/2000/svg">
  <sodipodi:namedview
     id="namedview182"
     pagecolor="#ffffff"
     bordercolor="#000000"
     borderopacity="0.25"
     inkscape:showpageshadow="2"
     inkscape:pageopacity="0.0"
     inkscape:pagecheckerboard="0"
     inkscape:deskcolor="#d1d1d1"
     showgrid="false"
     inkscape:zoom="0.72228916"
     inkscape:cx="349.58299"
     inkscape:cy="152.98582"
     inkscape:window-width="1628"
     inkscape:window-height="1368"
     inkscape:window-x="2000"
     inkscape:window-y="64"
     inkscape:window-maximized="0"
     inkscape:current-layer="g208">
    <inkscape:page
       x="0"
       y="0"
       width="840.26361"
       height="547.61597"
       id="page232"
       margin="0 0 0 0"
       bleed="0" />
  </sodipodi:namedview>
  <defs
     id="defs1" />
  <path
     fill="none"
     stroke="none"
     id="path1"
     d="" />
  <path
     fill="none"
     stroke="none"
     id="path3"
     d="" />
  <path
     fill="none"
     stroke="none"
     id="path5"
     d="" />
  <path
     fill="none"
     stroke="none"
     id="path7"
     d="" />
  <path
     fill="none"
     stroke="none"
     id="path9"
     d="" />
  <path
     fill="none"
     stroke="none"
     id="path11"
     d="" />
  <path
     fill="none"
     stroke="none"
     id="path13"
     d="" />
  <path
     fill="none"
     stroke="none"
     id="path15"
     d="" />
  <path
     fill="none"
     stroke="none"
     id="path17"
     d="" />
  <path
     fill="none"
     stroke="none"
     id="path19"
     d="" />
  <path
     fill="none"
     stroke="none"
     id="path21"
     d="" />
  <path
     fill="none"
     stroke="none"
     id="path23"
     d="" />
  <path
     fill="none"
     stroke="none"
     id="path25"
     d="" />
  <path
     fill="none"
     stroke="none"
     id="path27"
     d="" />
  <path
     fill="none"
     stroke="none"
     id="path29"
     d="" />
  <path
     fill="none"
     stroke="none"
     id="path31"
     d="" />
  <path
     fill="none"
     stroke="none"
     id="path33"
     d="" />
  <path
     fill="none"
     stroke="none"
     id="path35"
     d="" />
  <path
     fill="none"
     stroke="none"
     id="path37"
     d="" />
  <path
     fill="none"
     stroke="none"
     id="path39"
     d="" />
  <path
     fill="none"
     stroke="none"
     id="path41"
     d="" />
  <path
     fill="none"
     stroke="none"
     id="path43"
     d="" />
  <path
     fill="none"
     stroke="none"
     id="path45"
     d="" />
  <path
     fill="none"
     stroke="none"
     id="path47"
     d="" />
  <path
     fill="none"
     stroke="none"
     id="path49"
     d="" />
  <path
     fill="none"
     stroke="none"
     id="path51"
     d="" />
  <path
     fill="none"
     stroke="none"
     id="path53"
     d="" />
  <path
     fill="none"
     stroke="none"
     id="path55"
     d="" />
  <path
     fill="none"
     stroke="none"
     id="path57"
     d="" />
  <path
     fill="none"
     stroke="none"
     id="path59"
     d="" />
  <path
     fill="none"
     stroke="none"
     id="path61"
     d="" />
  <path
     fill="none"
     stroke="none"
     id="path63"
     d="" />
  <path
     fill="none"
     stroke="none"
     id="path65"
     d="" />
  <path
     fill="none"
     stroke="none"
     id="path67"
     d="" />
  <path
     fill="none"
     stroke="none"
     id="path69"
     d="" />
  <path
     fill="none"
     stroke="none"
     id="path71"
     d="" />
  <path
     fill="none"
     stroke="none"
     id="path73"
     d="" />
  <path
     fill="none"
     stroke="none"
     id="path75"
     d="" />
  <path
     fill="none"
     stroke="none"
     id="path77"
     d="" />
  <path
     fill="none"
     stroke="none"
     id="path79"
     d="" />
  <path
     fill="none"
     stroke="none"
     id="path81"
     d="" />
  <path
     fill="none"
     stroke="none"
     id="path83"
     d="" />
  <path
     fill="none"
     stroke="none"
     id="path85"
     d="" />
  <path
     fill="none"
     stroke="none"
     id="path87"
     d="" />
  <path
     fill="none"
     stroke="none"
     id="path89"
     d="" />
  <path
     fill="none"
     stroke="none"
     id="path91"
     d="" />
  <path
     fill="none"
     stroke="none"
     id="path93"
     d="" />
  <path
     fill="none"
     stroke="none"
     id="path95"
     d="" />
  <path
     fill="none"
     stroke="none"
     id="path97"
     d="" />
  <path
     fill="none"
     stroke="none"
     id="path99"
     d="" />
  <path
     fill="none"
     stroke="none"
     id="path101"
     d="" />
  <path
     fill="none"
     stroke="none"
     id="path103"
     d="" />
  <path
     fill="none"
     stroke="none"
     id="path105"
     d="" />
  <path
     fill="none"
     stroke="none"
     id="path107"
     d="" />
  <path
     fill="none"
     stroke="none"
     id="path109"
     d="" />
  <path
     fill="none"
     stroke="none"
     id="path111"
     d="" />
  <path
     fill="none"
     stroke="none"
     id="path113"
     d="" />
  <text
     fill="#000000"
     fill-opacity="1"
     stroke="none"
     font-family="Arial"
     font-size="11px"
     pt=""
     font-style="normal"
     font-weight="400"
     text-decoration="none"
     x="-763.41577"
     y="-2152.3064"
     text-anchor="middle"
     dominant-baseline="alphabetic"
     id="text117"
     style="text-decoration:none;text-decoration-line:none">0</text>
  <text
     fill="#000000"
     fill-opacity="1"
     stroke="none"
     font-family="Arial"
     font-size="11px"
     pt=""
     font-style="normal"
     font-weight="400"
     text-decoration="none"
     x="-763.41577"
     y="-2152.3064"
     text-anchor="middle"
     dominant-baseline="alphabetic"
     id="text118"
     style="text-decoration:none;text-decoration-line:none">0</text>
  <text
     fill="#000000"
     fill-opacity="1"
     stroke="none"
     font-family="Arial"
     font-size="11px"
     pt=""
     font-style="normal"
     font-weight="400"
     text-decoration="none"
     x="-763.41577"
     y="-2152.3064"
     text-anchor="middle"
     dominant-baseline="alphabetic"
     id="text121"
     style="text-decoration:none;text-decoration-line:none">0</text>
  <text
     fill="#000000"
     fill-opacity="1"
     stroke="none"
     font-family="Arial"
     font-size="11px"
     pt=""
     font-style="normal"
     font-weight="400"
     text-decoration="none"
     x="-763.41577"
     y="-2152.3064"
     text-anchor="middle"
     dominant-baseline="alphabetic"
     id="text122"
     style="text-decoration:none;text-decoration-line:none">0</text>
  <text
     fill="#000000"
     fill-opacity="1"
     stroke="none"
     font-family="Arial"
     font-size="11px"
     pt=""
     font-style="normal"
     font-weight="400"
     text-decoration="none"
     x="-763.41577"
     y="-2152.3064"
     text-anchor="middle"
     dominant-baseline="alphabetic"
     id="text124"
     style="text-decoration:none;text-decoration-line:none">0</text>
  <text
     fill="#000000"
     fill-opacity="1"
     stroke="none"
     font-family="Arial"
     font-size="11px"
     pt=""
     font-style="normal"
     font-weight="400"
     text-decoration="none"
     x="-763.41577"
     y="-2152.3064"
     text-anchor="middle"
     dominant-baseline="alphabetic"
     id="text125"
     style="text-decoration:none;text-decoration-line:none">0</text>
  <text
     fill="#000000"
     fill-opacity="1"
     stroke="none"
     font-family="Arial"
     font-size="11px"
     pt=""
     font-style="normal"
     font-weight="400"
     text-decoration="none"
     x="-763.41577"
     y="-2152.3064"
     text-anchor="middle"
     dominant-baseline="alphabetic"
     id="text126"
     style="text-decoration:none;text-decoration-line:none">0</text>
  <text
     fill="#000000"
     fill-opacity="1"
     stroke="none"
     font-family="Arial"
     font-size="11px"
     pt=""
     font-style="normal"
     font-weight="400"
     text-decoration="none"
     x="-763.41577"
     y="-2152.3064"
     text-anchor="middle"
     dominant-baseline="alphabetic"
     id="text127"
     style="text-decoration:none;text-decoration-line:none">0</text>
  <text
     fill="#000000"
     fill-opacity="1"
     stroke="none"
     font-family="Arial"
     font-size="11px"
     pt=""
     font-style="normal"
     font-weight="400"
     text-decoration="none"
     x="-763.41577"
     y="-2152.3064"
     text-anchor="middle"
     dominant-baseline="alphabetic"
     id="text128"
     style="text-decoration:none;text-decoration-line:none">0</text>
  <text
     fill="#000000"
     fill-opacity="1"
     stroke="none"
     font-family="Arial"
     font-size="11px"
     pt=""
     font-style="normal"
     font-weight="400"
     text-decoration="none"
     x="-763.41577"
     y="-2152.3064"
     text-anchor="middle"
     dominant-baseline="alphabetic"
     id="text130"
     style="text-decoration:none;text-decoration-line:none">0</text>
  <text
     fill="#000000"
     fill-opacity="1"
     stroke="none"
     font-family="Arial"
     font-size="11px"
     pt=""
     font-style="normal"
     font-weight="400"
     text-decoration="none"
     x="-763.41577"
     y="-2152.3064"
     text-anchor="middle"
     dominant-baseline="alphabetic"
     id="text131"
     style="text-decoration:none;text-decoration-line:none">0</text>
  <text
     fill="#000000"
     fill-opacity="1"
     stroke="none"
     font-family="Arial"
     font-size="11px"
     pt=""
     font-style="normal"
     font-weight="400"
     text-decoration="none"
     x="-763.41577"
     y="-2152.3064"
     text-anchor="middle"
     dominant-baseline="alphabetic"
     id="text132"
     style="text-decoration:none;text-decoration-line:none">0</text>
  <text
     fill="#000000"
     fill-opacity="1"
     stroke="none"
     font-family="Arial"
     font-size="11px"
     pt=""
     font-style="normal"
     font-weight="400"
     text-decoration="none"
     x="-763.41577"
     y="-2152.3064"
     text-anchor="middle"
     dominant-baseline="alphabetic"
     id="text133"
     style="text-decoration:none;text-decoration-line:none">0</text>
  <text
     fill="#000000"
     fill-opacity="1"
     stroke="none"
     font-family="Arial"
     font-size="11px"
     pt=""
     font-style="normal"
     font-weight="400"
     text-decoration="none"
     x="-763.41577"
     y="-2152.3064"
     text-anchor="middle"
     dominant-baseline="alphabetic"
     id="text134"
     style="text-decoration:none;text-decoration-line:none">0</text>
  <text
     fill="#000000"
     fill-opacity="1"
     stroke="none"
     font-family="Arial"
     font-size="11px"
     pt=""
     font-style="normal"
     font-weight="400"
     text-decoration="none"
     x="-763.41577"
     y="-2152.3064"
     text-anchor="middle"
     dominant-baseline="alphabetic"
     id="text135"
     style="text-decoration:none;text-decoration-line:none">0</text>
  <text
     fill="#000000"
     fill-opacity="1"
     stroke="none"
     font-family="Arial"
     font-size="11px"
     pt=""
     font-style="normal"
     font-weight="400"
     text-decoration="none"
     x="-763.41577"
     y="-2152.3064"
     text-anchor="middle"
     dominant-baseline="alphabetic"
     id="text136"
     style="text-decoration:none;text-decoration-line:none">0</text>
  <text
     fill="#000000"
     fill-opacity="1"
     stroke="none"
     font-family="Arial"
     font-size="11px"
     pt=""
     font-style="normal"
     font-weight="400"
     text-decoration="none"
     x="-763.41577"
     y="-2152.3064"
     text-anchor="middle"
     dominant-baseline="alphabetic"
     id="text137"
     style="text-decoration:none;text-decoration-line:none">0</text>
  <text
     fill="#000000"
     fill-opacity="1"
     stroke="none"
     font-family="Arial"
     font-size="11px"
     pt=""
     font-style="normal"
     font-weight="400"
     text-decoration="none"
     x="-763.41577"
     y="-2152.3064"
     text-anchor="middle"
     dominant-baseline="alphabetic"
     id="text138"
     style="text-decoration:none;text-decoration-line:none">0</text>
  <text
     fill="#000000"
     fill-opacity="1"
     stroke="none"
     font-family="Arial"
     font-size="11px"
     pt=""
     font-style="normal"
     font-weight="400"
     text-decoration="none"
     x="-763.41577"
     y="-2152.3064"
     text-anchor="middle"
     dominant-baseline="alphabetic"
     id="text139"
     style="text-decoration:none;text-decoration-line:none">0</text>
  <text
     fill="#000000"
     fill-opacity="1"
     stroke="none"
     font-family="Arial"
     font-size="11px"
     pt=""
     font-style="normal"
     font-weight="400"
     text-decoration="none"
     x="-763.41577"
     y="-2152.3064"
     text-anchor="middle"
     dominant-baseline="alphabetic"
     id="text140"
     style="text-decoration:none;text-decoration-line:none">0</text>
  <text
     fill="#000000"
     fill-opacity="1"
     stroke="none"
     font-family="Arial"
     font-size="11px"
     pt=""
     font-style="normal"
     font-weight="400"
     text-decoration="none"
     x="-763.41577"
     y="-2152.3064"
     text-anchor="middle"
     dominant-baseline="alphabetic"
     id="text141"
     style="text-decoration:none;text-decoration-line:none">0</text>
  <text
     fill="#000000"
     fill-opacity="1"
     stroke="none"
     font-family="Arial"
     font-size="11px"
     pt=""
     font-style="normal"
     font-weight="400"
     text-decoration="none"
     x="-763.41577"
     y="-2152.3064"
     text-anchor="middle"
     dominant-baseline="alphabetic"
     id="text142"
     style="text-decoration:none;text-decoration-line:none">0</text>
  <text
     fill="#000000"
     fill-opacity="1"
     stroke="none"
     font-family="Arial"
     font-size="11px"
     pt=""
     font-style="normal"
     font-weight="400"
     text-decoration="none"
     x="-763.41577"
     y="-2152.3064"
     text-anchor="middle"
     dominant-baseline="alphabetic"
     id="text143"
     style="text-decoration:none;text-decoration-line:none">0</text>
  <text
     fill="#000000"
     fill-opacity="1"
     stroke="none"
     font-family="Arial"
     font-size="11px"
     pt=""
     font-style="normal"
     font-weight="400"
     text-decoration="none"
     x="-763.41577"
     y="-2152.3064"
     text-anchor="middle"
     dominant-baseline="alphabetic"
     id="text144"
     style="text-decoration:none;text-decoration-line:none">0</text>
  <text
     fill="#000000"
     fill-opacity="1"
     stroke="none"
     font-family="Arial"
     font-size="11px"
     pt=""
     font-style="normal"
     font-weight="400"
     text-decoration="none"
     x="-763.41577"
     y="-2152.3064"
     text-anchor="middle"
     dominant-baseline="alphabetic"
     id="text145"
     style="text-decoration:none;text-decoration-line:none">0</text>
  <text
     fill="#000000"
     fill-opacity="1"
     stroke="none"
     font-family="Arial"
     font-size="11px"
     pt=""
     font-style="normal"
     font-weight="400"
     text-decoration="none"
     x="-763.41577"
     y="-2152.3064"
     text-anchor="middle"
     dominant-baseline="alphabetic"
     id="text146"
     style="text-decoration:none;text-decoration-line:none">0</text>
  <text
     fill="#000000"
     fill-opacity="1"
     stroke="none"
     font-family="Arial"
     font-size="11px"
     pt=""
     font-style="normal"
     font-weight="400"
     text-decoration="none"
     x="-763.41577"
     y="-2152.3064"
     text-anchor="middle"
     dominant-baseline="alphabetic"
     id="text147"
     style="text-decoration:none;text-decoration-line:none">0</text>
  <text
     fill="#000000"
     fill-opacity="1"
     stroke="none"
     font-family="Arial"
     font-size="11px"
     pt=""
     font-style="normal"
     font-weight="400"
     text-decoration="none"
     x="-763.41577"
     y="-2152.3064"
     text-anchor="middle"
     dominant-baseline="alphabetic"
     id="text148"
     style="text-decoration:none;text-decoration-line:none">0</text>
  <text
     fill="#000000"
     fill-opacity="1"
     stroke="none"
     font-family="Arial"
     font-size="11px"
     pt=""
     font-style="normal"
     font-weight="400"
     text-decoration="none"
     x="-763.41577"
     y="-2152.3064"
     text-anchor="middle"
     dominant-baseline="alphabetic"
     id="text149"
     style="text-decoration:none;text-decoration-line:none">0</text>
  <text
     fill="#000000"
     fill-opacity="1"
     stroke="none"
     font-family="Arial"
     font-size="11px"
     pt=""
     font-style="normal"
     font-weight="400"
     text-decoration="none"
     x="-763.41577"
     y="-2152.3064"
     text-anchor="middle"
     dominant-baseline="alphabetic"
     id="text150"
     style="text-decoration:none;text-decoration-line:none">0</text>
  <text
     fill="#000000"
     fill-opacity="1"
     stroke="none"
     font-family="Arial"
     font-size="11px"
     pt=""
     font-style="normal"
     font-weight="400"
     text-decoration="none"
     x="-763.41577"
     y="-2152.3064"
     text-anchor="middle"
     dominant-baseline="alphabetic"
     id="text151"
     style="text-decoration:none;text-decoration-line:none">0</text>
  <text
     fill="#000000"
     fill-opacity="1"
     stroke="none"
     font-family="Arial"
     font-size="11px"
     pt=""
     font-style="normal"
     font-weight="400"
     text-decoration="none"
     x="-763.41577"
     y="-2152.3064"
     text-anchor="middle"
     dominant-baseline="alphabetic"
     id="text152"
     style="text-decoration:none;text-decoration-line:none">0</text>
  <text
     fill="#000000"
     fill-opacity="1"
     stroke="none"
     font-family="Arial"
     font-size="11px"
     pt=""
     font-style="normal"
     font-weight="400"
     text-decoration="none"
     x="-763.41577"
     y="-2152.3064"
     text-anchor="middle"
     dominant-baseline="alphabetic"
     id="text153"
     style="text-decoration:none;text-decoration-line:none">0</text>
  <text
     fill="#000000"
     fill-opacity="1"
     stroke="none"
     font-family="Arial"
     font-size="11px"
     pt=""
     font-style="normal"
     font-weight="400"
     text-decoration="none"
     x="-763.41577"
     y="-2152.3064"
     text-anchor="middle"
     dominant-baseline="alphabetic"
     id="text154"
     style="text-decoration:none;text-decoration-line:none">0</text>
  <text
     fill="#000000"
     fill-opacity="1"
     stroke="none"
     font-family="Arial"
     font-size="11px"
     pt=""
     font-style="normal"
     font-weight="400"
     text-decoration="none"
     x="-763.41577"
     y="-2152.3064"
     text-anchor="middle"
     dominant-baseline="alphabetic"
     id="text155"
     style="text-decoration:none;text-decoration-line:none">0</text>
  <text
     fill="#000000"
     fill-opacity="1"
     stroke="none"
     font-family="Arial"
     font-size="11px"
     pt=""
     font-style="normal"
     font-weight="400"
     text-decoration="none"
     x="-763.41577"
     y="-2152.3064"
     text-anchor="middle"
     dominant-baseline="alphabetic"
     id="text156"
     style="text-decoration:none;text-decoration-line:none">0</text>
  <text
     fill="#000000"
     fill-opacity="1"
     stroke="none"
     font-family="Arial"
     font-size="11px"
     pt=""
     font-style="normal"
     font-weight="400"
     text-decoration="none"
     x="-763.41577"
     y="-2152.3064"
     text-anchor="middle"
     dominant-baseline="alphabetic"
     id="text157"
     style="text-decoration:none;text-decoration-line:none">0</text>
  <text
     fill="#000000"
     fill-opacity="1"
     stroke="none"
     font-family="Arial"
     font-size="11px"
     pt=""
     font-style="normal"
     font-weight="400"
     text-decoration="none"
     x="-763.41577"
     y="-2152.3064"
     text-anchor="middle"
     dominant-baseline="alphabetic"
     id="text158"
     style="text-decoration:none;text-decoration-line:none">0</text>
  <text
     fill="#000000"
     fill-opacity="1"
     stroke="none"
     font-family="Arial"
     font-size="11px"
     pt=""
     font-style="normal"
     font-weight="400"
     text-decoration="none"
     x="-763.41577"
     y="-2152.3064"
     text-anchor="middle"
     dominant-baseline="alphabetic"
     id="text159"
     style="text-decoration:none;text-decoration-line:none">0</text>
  <text
     fill="#000000"
     fill-opacity="1"
     stroke="none"
     font-family="Arial"
     font-size="11px"
     pt=""
     font-style="normal"
     font-weight="400"
     text-decoration="none"
     x="-763.41577"
     y="-2152.3064"
     text-anchor="middle"
     dominant-baseline="alphabetic"
     id="text160"
     style="text-decoration:none;text-decoration-line:none">0</text>
  <text
     fill="#000000"
     fill-opacity="1"
     stroke="none"
     font-family="Arial"
     font-size="11px"
     pt=""
     font-style="normal"
     font-weight="400"
     text-decoration="none"
     x="-763.41577"
     y="-2152.3064"
     text-anchor="middle"
     dominant-baseline="alphabetic"
     id="text161"
     style="text-decoration:none;text-decoration-line:none">0</text>
  <text
     fill="#000000"
     fill-opacity="1"
     stroke="none"
     font-family="Arial"
     font-size="11px"
     pt=""
     font-style="normal"
     font-weight="400"
     text-decoration="none"
     x="-763.41577"
     y="-2152.3064"
     text-anchor="middle"
     dominant-baseline="alphabetic"
     id="text162"
     style="text-decoration:none;text-decoration-line:none">0</text>
  <text
     fill="#000000"
     fill-opacity="1"
     stroke="none"
     font-family="Arial"
     font-size="11px"
     pt=""
     font-style="normal"
     font-weight="400"
     text-decoration="none"
     x="-763.41577"
     y="-2152.3064"
     text-anchor="middle"
     dominant-baseline="alphabetic"
     id="text163"
     style="text-decoration:none;text-decoration-line:none">0</text>
  <text
     fill="#000000"
     fill-opacity="1"
     stroke="none"
     font-family="Arial"
     font-size="11px"
     pt=""
     font-style="normal"
     font-weight="400"
     text-decoration="none"
     x="-763.41577"
     y="-2152.3064"
     text-anchor="middle"
     dominant-baseline="alphabetic"
     id="text164"
     style="text-decoration:none;text-decoration-line:none">0</text>
  <text
     fill="#000000"
     fill-opacity="1"
     stroke="none"
     font-family="Arial"
     font-size="11px"
     pt=""
     font-style="normal"
     font-weight="400"
     text-decoration="none"
     x="-763.41577"
     y="-2152.3064"
     text-anchor="middle"
     dominant-baseline="alphabetic"
     id="text165"
     style="text-decoration:none;text-decoration-line:none">0</text>
  <text
     fill="#000000"
     fill-opacity="1"
     stroke="none"
     font-family="Arial"
     font-size="11px"
     pt=""
     font-style="normal"
     font-weight="400"
     text-decoration="none"
     x="-763.41577"
     y="-2152.3064"
     text-anchor="middle"
     dominant-baseline="alphabetic"
     id="text166"
     style="text-decoration:none;text-decoration-line:none">0</text>
  <text
     fill="#000000"
     fill-opacity="1"
     stroke="none"
     font-family="Arial"
     font-size="11px"
     pt=""
     font-style="normal"
     font-weight="400"
     text-decoration="none"
     x="-763.41577"
     y="-2152.3064"
     text-anchor="middle"
     dominant-baseline="alphabetic"
     id="text167"
     style="text-decoration:none;text-decoration-line:none">0</text>
  <text
     fill="#000000"
     fill-opacity="1"
     stroke="none"
     font-family="Arial"
     font-size="11px"
     pt=""
     font-style="normal"
     font-weight="400"
     text-decoration="none"
     x="-763.41577"
     y="-2152.3064"
     text-anchor="middle"
     dominant-baseline="alphabetic"
     id="text168"
     style="text-decoration:none;text-decoration-line:none">0</text>
  <text
     fill="#000000"
     fill-opacity="1"
     stroke="none"
     font-family="Arial"
     font-size="11px"
     pt=""
     font-style="normal"
     font-weight="400"
     text-decoration="none"
     x="-763.41577"
     y="-2152.3064"
     text-anchor="middle"
     dominant-baseline="alphabetic"
     id="text169"
     style="text-decoration:none;text-decoration-line:none">0</text>
  <text
     fill="#000000"
     fill-opacity="1"
     stroke="none"
     font-family="Arial"
     font-size="11px"
     pt=""
     font-style="normal"
     font-weight="400"
     text-decoration="none"
     x="-763.41577"
     y="-2152.3064"
     text-anchor="middle"
     dominant-baseline="alphabetic"
     id="text170"
     style="text-decoration:none;text-decoration-line:none">0</text>
  <text
     fill="#000000"
     fill-opacity="1"
     stroke="none"
     font-family="Arial"
     font-size="11px"
     pt=""
     font-style="normal"
     font-weight="400"
     text-decoration="none"
     x="-763.41577"
     y="-2152.3064"
     text-anchor="middle"
     dominant-baseline="alphabetic"
     id="text171"
     style="text-decoration:none;text-decoration-line:none">0</text>
  <text
     fill="#000000"
     fill-opacity="1"
     stroke="none"
     font-family="Arial"
     font-size="11px"
     pt=""
     font-style="normal"
     font-weight="400"
     text-decoration="none"
     x="-763.41577"
     y="-2152.3064"
     text-anchor="middle"
     dominant-baseline="alphabetic"
     id="text172"
     style="text-decoration:none;text-decoration-line:none">0</text>
  <text
     fill="#000000"
     fill-opacity="1"
     stroke="none"
     font-family="Arial"
     font-size="11px"
     pt=""
     font-style="normal"
     font-weight="400"
     text-decoration="none"
     x="-763.41577"
     y="-2152.3064"
     text-anchor="middle"
     dominant-baseline="alphabetic"
     id="text173"
     style="text-decoration:none;text-decoration-line:none">0</text>
  <text
     fill="#000000"
     fill-opacity="1"
     stroke="none"
     font-family="Arial"
     font-size="11px"
     pt=""
     font-style="normal"
     font-weight="400"
     text-decoration="none"
     x="-763.41577"
     y="-2152.3064"
     text-anchor="middle"
     dominant-baseline="alphabetic"
     id="text174"
     style="text-decoration:none;text-decoration-line:none">0</text>
  <text
     fill="#000000"
     fill-opacity="1"
     stroke="none"
     font-family="Arial"
     font-size="11px"
     pt=""
     font-style="normal"
     font-weight="400"
     text-decoration="none"
     x="-763.41577"
     y="-2152.3064"
     text-anchor="middle"
     dominant-baseline="alphabetic"
     id="text175"
     style="text-decoration:none;text-decoration-line:none">0</text>
  <text
     fill="#000000"
     fill-opacity="1"
     stroke="none"
     font-family="Arial"
     font-size="11px"
     pt=""
     font-style="normal"
     font-weight="400"
     text-decoration="none"
     x="-763.41577"
     y="-2152.3064"
     text-anchor="middle"
     dominant-baseline="alphabetic"
     id="text176"
     style="text-decoration:none;text-decoration-line:none">0</text>
  <g
     id="g208"
     transform="translate(160.80281,-52.536861)">
    <g
       transform="translate(234.53869,222.58794)"
       id="g2">
      <path
         fill="#006600"
         stroke="none"
         d="m 120,0 a 120,120 0 1 1 -6e-5,-0.11999998"
         fill-opacity="0.5"
         id="path2" />
    </g>
    <g
       transform="translate(390.5387,222.58794)"
       id="g4">
      <path
         fill="#5a9bd4"
         stroke="none"
         d="m 120,0 a 120,120 0 1 1 -6e-5,-0.11999998"
         fill-opacity="0.5"
         id="path4" />
    </g>
    <g
       transform="translate(312.5387,351.58794)"
       id="g6">
      <path
         fill="#f15a5f"
         stroke="none"
         d="m 120,0 a 120,120 0 1 1 -6e-5,-0.11999998"
         fill-opacity="0.5"
         id="path6" />
    </g>
    <rect
       fill="#ffffff"
       stroke="none"
       x="63.538696"
       y="80.587936"
       width="500"
       height="415"
       id="rect6" />
    <g
       transform="translate(234.53869,222.58794)"
       id="g8">
      <path
         fill="#006600"
         stroke="none"
         d="m 120,0 a 120,120 0 1 1 -6e-5,-0.11999998"
         fill-opacity="0.1"
         id="path8" />
    </g>
    <g
       transform="translate(390.5387,222.58794)"
       id="g10">
      <path
         fill="#5a9bd4"
         stroke="none"
         d="m 120,0 a 120,120 0 1 1 -6e-5,-0.11999998"
         fill-opacity="0.1"
         id="path10" />
    </g>
    <g
       transform="translate(312.5387,351.58794)"
       id="g12">
      <path
         fill="#f15a5f"
         stroke="none"
         d="m 120,0 a 120,120 0 1 1 -6e-5,-0.11999998"
         fill-opacity="0.6"
         id="path12" />
    </g>
    <rect
       fill="#ffffff"
       stroke="none"
       x="63.538696"
       y="80.587936"
       width="500"
       height="415"
       id="rect12" />
    <g
       transform="translate(234.53869,222.58794)"
       id="g14">
      <path
         fill="#006600"
         stroke="none"
         d="m 120,0 a 120,120 0 1 1 -6e-5,-0.11999998"
         fill-opacity="0.5"
         id="path14" />
    </g>
    <g
       transform="translate(390.5387,222.58794)"
       id="g16">
      <path
         fill="#5a9bd4"
         stroke="none"
         d="m 120,0 a 120,120 0 1 1 -6e-5,-0.11999998"
         fill-opacity="0.5"
         id="path16" />
    </g>
    <g
       transform="translate(312.5387,351.58794)"
       id="g18">
      <path
         fill="#f15a5f"
         stroke="none"
         d="m 120,0 a 120,120 0 1 1 -6e-5,-0.11999998"
         fill-opacity="0.5"
         id="path18" />
    </g>
    <rect
       fill="#ffffff"
       stroke="none"
       x="63.538696"
       y="80.587936"
       width="500"
       height="415"
       id="rect18" />
    <g
       transform="translate(234.53869,222.58794)"
       id="g20">
      <path
         fill="#006600"
         stroke="none"
         d="m 120,0 a 120,120 0 1 1 -6e-5,-0.11999998"
         fill-opacity="0.1"
         id="path20" />
    </g>
    <g
       transform="translate(390.5387,222.58794)"
       id="g22">
      <path
         fill="#5a9bd4"
         stroke="none"
         d="m 120,0 a 120,120 0 1 1 -6e-5,-0.11999998"
         fill-opacity="0.1"
         id="path22" />
    </g>
    <g
       transform="translate(312.5387,351.58794)"
       id="g24">
      <path
         fill="#f15a5f"
         stroke="none"
         d="m 120,0 a 120,120 0 1 1 -6e-5,-0.11999998"
         fill-opacity="0.6"
         id="path24" />
    </g>
    <rect
       fill="#ffffff"
       stroke="none"
       x="63.538696"
       y="80.587936"
       width="500"
       height="415"
       id="rect24" />
    <g
       transform="translate(234.53869,222.58794)"
       id="g26">
      <path
         fill="#006600"
         stroke="none"
         d="m 120,0 a 120,120 0 1 1 -6e-5,-0.11999998"
         fill-opacity="0.5"
         id="path26" />
    </g>
    <g
       transform="translate(390.5387,222.58794)"
       id="g28">
      <path
         fill="#5a9bd4"
         stroke="none"
         d="m 120,0 a 120,120 0 1 1 -6e-5,-0.11999998"
         fill-opacity="0.5"
         id="path28" />
    </g>
    <g
       transform="translate(312.5387,351.58794)"
       id="g30">
      <path
         fill="#f15a5f"
         stroke="none"
         d="m 120,0 a 120,120 0 1 1 -6e-5,-0.11999998"
         fill-opacity="0.5"
         id="path30" />
    </g>
    <rect
       fill="#ffffff"
       stroke="none"
       x="63.538696"
       y="80.587936"
       width="500"
       height="415"
       id="rect30" />
    <g
       transform="translate(234.53869,222.58794)"
       id="g32">
      <path
         fill="#006600"
         stroke="none"
         d="m 120,0 a 120,120 0 1 1 -6e-5,-0.11999998"
         fill-opacity="0.1"
         id="path32" />
    </g>
    <g
       transform="translate(390.5387,222.58794)"
       id="g34">
      <path
         fill="#5a9bd4"
         stroke="none"
         d="m 120,0 a 120,120 0 1 1 -6e-5,-0.11999998"
         fill-opacity="0.1"
         id="path34" />
    </g>
    <g
       transform="translate(312.5387,351.58794)"
       id="g36">
      <path
         fill="#f15a5f"
         stroke="none"
         d="m 120,0 a 120,120 0 1 1 -6e-5,-0.11999998"
         fill-opacity="0.6"
         id="path36" />
    </g>
    <rect
       fill="#ffffff"
       stroke="none"
       x="63.538696"
       y="80.587936"
       width="500"
       height="415"
       id="rect36" />
    <g
       transform="translate(234.53869,222.58794)"
       id="g38">
      <path
         fill="#006600"
         stroke="none"
         d="m 120,0 a 120,120 0 1 1 -6e-5,-0.11999998"
         fill-opacity="0.5"
         id="path38" />
    </g>
    <g
       transform="translate(390.5387,222.58794)"
       id="g40">
      <path
         fill="#5a9bd4"
         stroke="none"
         d="m 120,0 a 120,120 0 1 1 -6e-5,-0.11999998"
         fill-opacity="0.5"
         id="path40" />
    </g>
    <g
       transform="translate(312.5387,351.58794)"
       id="g42">
      <path
         fill="#f15a5f"
         stroke="none"
         d="m 120,0 a 120,120 0 1 1 -6e-5,-0.11999998"
         fill-opacity="0.5"
         id="path42" />
    </g>
    <rect
       fill="#ffffff"
       stroke="none"
       x="63.538696"
       y="80.587936"
       width="500"
       height="415"
       id="rect42" />
    <g
       transform="translate(234.53869,222.58794)"
       id="g44">
      <path
         fill="#006600"
         stroke="none"
         d="m 120,0 a 120,120 0 1 1 -6e-5,-0.11999998"
         fill-opacity="0.6"
         id="path44" />
    </g>
    <g
       transform="translate(390.5387,222.58794)"
       id="g46">
      <path
         fill="#5a9bd4"
         stroke="none"
         d="m 120,0 a 120,120 0 1 1 -6e-5,-0.11999998"
         fill-opacity="0.1"
         id="path46" />
    </g>
    <g
       transform="translate(312.5387,351.58794)"
       id="g48">
      <path
         fill="#f15a5f"
         stroke="none"
         d="m 120,0 a 120,120 0 1 1 -6e-5,-0.11999998"
         fill-opacity="0.1"
         id="path48" />
    </g>
    <rect
       fill="#ffffff"
       stroke="none"
       x="63.538696"
       y="80.587936"
       width="500"
       height="415"
       id="rect48" />
    <g
       transform="translate(234.53869,222.58794)"
       id="g50">
      <path
         fill="#006600"
         stroke="none"
         d="m 120,0 a 120,120 0 1 1 -6e-5,-0.11999998"
         fill-opacity="0.5"
         id="path50" />
    </g>
    <g
       transform="translate(390.5387,222.58794)"
       id="g52">
      <path
         fill="#5a9bd4"
         stroke="none"
         d="m 120,0 a 120,120 0 1 1 -6e-5,-0.11999998"
         fill-opacity="0.5"
         id="path52" />
    </g>
    <g
       transform="translate(312.5387,351.58794)"
       id="g54">
      <path
         fill="#f15a5f"
         stroke="none"
         d="m 120,0 a 120,120 0 1 1 -6e-5,-0.11999998"
         fill-opacity="0.5"
         id="path54" />
    </g>
    <rect
       fill="#ffffff"
       stroke="none"
       x="63.538696"
       y="80.587936"
       width="500"
       height="415"
       id="rect54" />
    <g
       transform="translate(234.53869,222.58794)"
       id="g56">
      <path
         fill="#006600"
         stroke="none"
         d="m 120,0 a 120,120 0 1 1 -6e-5,-0.11999998"
         fill-opacity="0.6"
         id="path56" />
    </g>
    <g
       transform="translate(390.5387,222.58794)"
       id="g58">
      <path
         fill="#5a9bd4"
         stroke="none"
         d="m 120,0 a 120,120 0 1 1 -6e-5,-0.11999998"
         fill-opacity="0.1"
         id="path58" />
    </g>
    <g
       transform="translate(312.5387,351.58794)"
       id="g60">
      <path
         fill="#f15a5f"
         stroke="none"
         d="m 120,0 a 120,120 0 1 1 -6e-5,-0.11999998"
         fill-opacity="0.6"
         id="path60" />
    </g>
    <rect
       fill="#ffffff"
       stroke="none"
       x="63.538696"
       y="80.587936"
       width="500"
       height="415"
       id="rect60" />
    <g
       transform="translate(234.53869,222.58794)"
       id="g62">
      <path
         fill="#006600"
         stroke="none"
         d="m 120,0 a 120,120 0 1 1 -6e-5,-0.11999998"
         fill-opacity="0.5"
         id="path62" />
    </g>
    <g
       transform="translate(390.5387,222.58794)"
       id="g64">
      <path
         fill="#5a9bd4"
         stroke="none"
         d="m 120,0 a 120,120 0 1 1 -6e-5,-0.11999998"
         fill-opacity="0.5"
         id="path64" />
    </g>
    <g
       transform="translate(312.5387,351.58794)"
       id="g66">
      <path
         fill="#f15a5f"
         stroke="none"
         d="m 120,0 a 120,120 0 1 1 -6e-5,-0.11999998"
         fill-opacity="0.5"
         id="path66" />
    </g>
    <rect
       fill="#ffffff"
       stroke="none"
       x="63.538696"
       y="80.587936"
       width="500"
       height="415"
       id="rect66" />
    <g
       transform="translate(234.53869,222.58794)"
       id="g68">
      <path
         fill="#006600"
         stroke="none"
         d="m 120,0 a 120,120 0 1 1 -6e-5,-0.11999998"
         fill-opacity="0.1"
         id="path68" />
    </g>
    <g
       transform="translate(390.5387,222.58794)"
       id="g70">
      <path
         fill="#5a9bd4"
         stroke="none"
         d="m 120,0 a 120,120 0 1 1 -6e-5,-0.11999998"
         fill-opacity="0.6"
         id="path70" />
    </g>
    <g
       transform="translate(312.5387,351.58794)"
       id="g72">
      <path
         fill="#f15a5f"
         stroke="none"
         d="m 120,0 a 120,120 0 1 1 -6e-5,-0.11999998"
         fill-opacity="0.6"
         id="path72" />
    </g>
    <rect
       fill="#ffffff"
       stroke="none"
       x="63.538696"
       y="80.587936"
       width="500"
       height="415"
       id="rect72" />
    <g
       transform="translate(234.53869,222.58794)"
       id="g74">
      <path
         fill="#006600"
         stroke="none"
         d="m 120,0 a 120,120 0 1 1 -6e-5,-0.11999998"
         fill-opacity="0.5"
         id="path74" />
    </g>
    <g
       transform="translate(390.5387,222.58794)"
       id="g76">
      <path
         fill="#5a9bd4"
         stroke="none"
         d="m 120,0 a 120,120 0 1 1 -6e-5,-0.11999998"
         fill-opacity="0.5"
         id="path76" />
    </g>
    <g
       transform="translate(312.5387,351.58794)"
       id="g78">
      <path
         fill="#f15a5f"
         stroke="none"
         d="m 120,0 a 120,120 0 1 1 -6e-5,-0.11999998"
         fill-opacity="0.5"
         id="path78" />
    </g>
    <rect
       fill="#ffffff"
       stroke="none"
       x="63.538696"
       y="80.587936"
       width="500"
       height="415"
       id="rect78" />
    <g
       transform="translate(234.53869,222.58794)"
       id="g80">
      <path
         fill="#006600"
         stroke="none"
         d="m 120,0 a 120,120 0 1 1 -6e-5,-0.11999998"
         fill-opacity="0.6"
         id="path80" />
    </g>
    <g
       transform="translate(390.5387,222.58794)"
       id="g82">
      <path
         fill="#5a9bd4"
         stroke="none"
         d="m 120,0 a 120,120 0 1 1 -6e-5,-0.11999998"
         fill-opacity="0.6"
         id="path82" />
    </g>
    <g
       transform="translate(312.5387,351.58794)"
       id="g84">
      <path
         fill="#f15a5f"
         stroke="none"
         d="m 120,0 a 120,120 0 1 1 -6e-5,-0.11999998"
         fill-opacity="0.6"
         id="path84" />
    </g>
    <rect
       fill="#ffffff"
       stroke="none"
       x="63.538696"
       y="80.587936"
       width="500"
       height="415"
       id="rect84" />
    <g
       transform="translate(234.53869,222.58794)"
       id="g86">
      <path
         fill="#006600"
         stroke="none"
         d="m 120,0 a 120,120 0 1 1 -6e-5,-0.11999998"
         fill-opacity="0.5"
         id="path86" />
    </g>
    <g
       transform="translate(390.5387,222.58794)"
       id="g88">
      <path
         fill="#5a9bd4"
         stroke="none"
         d="m 120,0 a 120,120 0 1 1 -6e-5,-0.11999998"
         fill-opacity="0.5"
         id="path88" />
    </g>
    <g
       transform="translate(312.5387,351.58794)"
       id="g90">
      <path
         fill="#f15a5f"
         stroke="none"
         d="m 120,0 a 120,120 0 1 1 -6e-5,-0.11999998"
         fill-opacity="0.5"
         id="path90" />
    </g>
    <rect
       fill="#ffffff"
       stroke="none"
       x="63.538696"
       y="80.587936"
       width="500"
       height="415"
       id="rect90" />
    <g
       transform="translate(234.53869,222.58794)"
       id="g92">
      <path
         fill="#006600"
         stroke="none"
         d="m 120,0 a 120,120 0 1 1 -6e-5,-0.11999998"
         fill-opacity="0.6"
         id="path92" />
    </g>
    <g
       transform="translate(390.5387,222.58794)"
       id="g94">
      <path
         fill="#5a9bd4"
         stroke="none"
         d="m 120,0 a 120,120 0 1 1 -6e-5,-0.11999998"
         fill-opacity="0.6"
         id="path94" />
    </g>
    <g
       transform="translate(312.5387,351.58794)"
       id="g96">
      <path
         fill="#f15a5f"
         stroke="none"
         d="m 120,0 a 120,120 0 1 1 -6e-5,-0.11999998"
         fill-opacity="0.6"
         id="path96" />
    </g>
    <rect
       fill="#ffffff"
       stroke="none"
       x="63.538696"
       y="80.587936"
       width="500"
       height="415"
       id="rect96" />
    <g
       transform="translate(234.53869,222.58794)"
       id="g98">
      <path
         fill="#006600"
         stroke="none"
         d="m 120,0 a 120,120 0 1 1 -6e-5,-0.11999998"
         fill-opacity="0.5"
         id="path98" />
    </g>
    <g
       transform="translate(390.5387,222.58794)"
       id="g100">
      <path
         fill="#5a9bd4"
         stroke="none"
         d="m 120,0 a 120,120 0 1 1 -6e-5,-0.11999998"
         fill-opacity="0.5"
         id="path100" />
    </g>
    <g
       transform="translate(312.5387,351.58794)"
       id="g102">
      <path
         fill="#f15a5f"
         stroke="none"
         d="m 120,0 a 120,120 0 1 1 -6e-5,-0.11999998"
         fill-opacity="0.5"
         id="path102" />
    </g>
    <rect
       fill="#ffffff"
       stroke="none"
       x="63.538696"
       y="80.587936"
       width="500"
       height="415"
       id="rect102" />
    <g
       transform="translate(234.53869,222.58794)"
       id="g104">
      <path
         fill="#006600"
         stroke="none"
         d="m 120,0 a 120,120 0 1 1 -6e-5,-0.11999998"
         fill-opacity="0.6"
         id="path104" />
    </g>
    <g
       transform="translate(390.5387,222.58794)"
       id="g106">
      <path
         fill="#5a9bd4"
         stroke="none"
         d="m 120,0 a 120,120 0 1 1 -6e-5,-0.11999998"
         fill-opacity="0.6"
         id="path106" />
    </g>
    <g
       transform="translate(312.5387,351.58794)"
       id="g108">
      <path
         fill="#f15a5f"
         stroke="none"
         d="m 120,0 a 120,120 0 1 1 -6e-5,-0.11999998"
         fill-opacity="0.1"
         id="path108" />
    </g>
    <rect
       fill="#ffffff"
       stroke="none"
       x="63.538696"
       y="80.587936"
       width="500"
       height="415"
       id="rect108" />
    <g
       transform="translate(234.53869,222.58794)"
       id="g110">
      <path
         fill="#006600"
         stroke="none"
         d="m 120,0 a 120,120 0 1 1 -6e-5,-0.11999998"
         fill-opacity="0.5"
         id="path110" />
    </g>
    <g
       transform="translate(390.5387,222.58794)"
       id="g112">
      <path
         fill="#5a9bd4"
         stroke="none"
         d="m 120,0 a 120,120 0 1 1 -6e-5,-0.11999998"
         fill-opacity="0.5"
         id="path112" />
    </g>
    <g
       transform="translate(312.5387,351.58794)"
       id="g114">
      <path
         fill="#f15a5f"
         stroke="none"
         d="m 120,0 a 120,120 0 1 1 -6e-5,-0.11999998"
         fill-opacity="0.5"
         id="path114" />
    </g>
    <text
       fill="#000000"
       fill-opacity="1"
       stroke="none"
       font-family="Arial"
       font-size="11px"
       pt=""
       font-style="normal"
       font-weight="700"
       text-decoration="none"
       x="246.69173"
       y="132.6651"
       text-anchor="middle"
       dominant-baseline="alphabetic"
       id="text114"
       style="text-decoration:none;text-decoration-line:none">10</text>
    <text
       fill="#000000"
       fill-opacity="1"
       stroke="none"
       font-family="Arial"
       font-size="11px"
       pt=""
       font-style="normal"
       font-weight="700"
       text-decoration="none"
       x="387.73318"
       y="132.71942"
       text-anchor="middle"
       dominant-baseline="alphabetic"
       id="text115"
       style="text-decoration:none;text-decoration-line:none">7</text>
    <text
       fill="#000000"
       fill-opacity="1"
       stroke="none"
       font-family="Arial"
       font-size="11px"
       pt=""
       font-style="normal"
       font-weight="700"
       text-decoration="none"
       x="314.2648"
       y="346.36966"
       text-anchor="middle"
       dominant-baseline="alphabetic"
       id="text116"
       style="text-decoration:none;text-decoration-line:none">27</text>
    <text
       fill="#000000"
       fill-opacity="1"
       stroke="none"
       font-family="Arial"
       font-size="11px"
       pt=""
       font-style="normal"
       font-weight="700"
       text-decoration="none"
       x="313.5387"
       y="194.58794"
       text-anchor="middle"
       dominant-baseline="alphabetic"
       id="text119"
       style="text-decoration:none;text-decoration-line:none">3</text>
    <text
       fill="#000000"
       fill-opacity="1"
       stroke="none"
       font-family="Arial"
       font-size="11px"
       pt=""
       font-style="normal"
       font-weight="700"
       text-decoration="none"
       x="254.41982"
       y="273.02554"
       text-anchor="middle"
       dominant-baseline="alphabetic"
       id="text120"
       style="text-decoration:none;text-decoration-line:none">4</text>
    <text
       fill="#000000"
       fill-opacity="1"
       stroke="none"
       font-family="Arial"
       font-size="11px"
       pt=""
       font-style="normal"
       font-weight="400"
       text-decoration="none"
       x="389.27301"
       y="329.63599"
       text-anchor="middle"
       dominant-baseline="alphabetic"
       id="text123"
       style="text-decoration:none;text-decoration-line:none">0</text>
    <text
       fill="#000000"
       fill-opacity="1"
       stroke="none"
       font-family="Arial"
       font-size="11px"
       pt=""
       font-style="normal"
       font-weight="400"
       text-decoration="none"
       x="313.5387"
       y="269.58795"
       text-anchor="middle"
       dominant-baseline="alphabetic"
       id="text129"
       style="text-decoration:none;text-decoration-line:none">0</text>
    <text
       fill="#006600"
       fill-opacity="0.5"
       stroke="none"
       font-family="Arial"
       font-size="12px"
       pt=""
       font-style="normal"
       font-weight="400"
       text-decoration="none"
       x="138.5387"
       y="99.587936"
       text-anchor="middle"
       dominant-baseline="alphabetic"
       id="text177"
       style="text-decoration:none;text-decoration-line:none">Leadership</text>
    <text
       fill="#5a9bd4"
       fill-opacity="0.5"
       stroke="none"
       font-family="Arial"
       font-size="12px"
       pt=""
       font-style="normal"
       font-weight="400"
       text-decoration="none"
       x="463.5387"
       y="99.587936"
       text-anchor="middle"
       dominant-baseline="alphabetic"
       id="text178"
       style="text-decoration:none;text-decoration-line:none">Board</text>
    <text
       fill="#f15a5f"
       fill-opacity="0.5"
       stroke="none"
       font-family="Arial"
       font-size="12px"
       pt=""
       font-style="normal"
       font-weight="400"
       text-decoration="none"
       x="264.00003"
       y="492.50684"
       text-anchor="middle"
       dominant-baseline="alphabetic"
       id="text179"
       style="text-decoration:none;text-decoration-line:none">Advisors</text>
    <text
       xml:space="preserve"
       style="font-style:normal;font-variant:normal;font-weight:normal;font-stretch:normal;font-size:6.66667px;line-height:125%;font-family:'IBM Plex Mono';-inkscape-font-specification:'IBM Plex Mono,  weight=453';font-variant-ligatures:normal;font-variant-caps:normal;font-variant-numeric:normal;font-variant-east-asian:normal;text-align:start;text-anchor:start;fill:#000000;stroke-width:0;stroke-opacity:0.85"
       x="320.85168"
       y="203.82808"
       id="text226"><tspan
         sodipodi:role="line"
         id="tspan226"
         x="320.85168"
         y="203.82808">Yaron Ashkenazi | Founder &amp; Managing Partner</tspan><tspan
         sodipodi:role="line"
         x="320.85168"
         y="212.16142"
         id="tspan227">Edward Sonshine | Founding Partner &amp; Chairman of the Board</tspan><tspan
         sodipodi:role="line"
         x="320.85168"
         y="220.49475"
         id="tspan228">Daniel Mak | Executive General Partner, Strategic Growth</tspan></text>
    <text
       xml:space="preserve"
       style="font-style:normal;font-variant:normal;font-weight:normal;font-stretch:normal;font-size:6.66667px;line-height:125%;font-family:'IBM Plex Mono';-inkscape-font-specification:'IBM Plex Mono,  weight=453';font-variant-ligatures:normal;font-variant-caps:normal;font-variant-numeric:normal;font-variant-east-asian:normal;text-align:start;text-anchor:start;fill:#000000;stroke-width:0;stroke-opacity:0.85"
       x="250.65633"
       y="283.45905"
       id="text229"><tspan
         sodipodi:role="line"
         id="tspan229"
         x="250.65633"
         y="283.45905">Rt. Hon. Stephen Harper | Partner &amp; President of Advisory Committee</tspan><tspan
         sodipodi:role="line"
         x="250.65633"
         y="291.79239"
         id="tspan230">Erez Kreiner​ | Venture Partner, Awz Ventures I &amp; II</tspan><tspan
         sodipodi:role="line"
         x="250.65633"
         y="300.12573"
         id="tspan231">Brig. Gen. (Ret) Ehud Schneorson | Venture Partner, Awz Ventures III; Former Commander of Unit 8200</tspan><tspan
         sodipodi:role="line"
         x="250.65633"
         y="308.45905"
         id="tspan232">Roni Alsheich | General Partner, Awz X-Seed</tspan></text>
  </g>
  <text
     fill="#000000"
     fill-opacity="0.5"
     stroke="none"
     font-family="Arial"
     font-size="12px"
     pt=""
     font-style="normal"
     font-weight="400"
     text-decoration="none"
     x="-748.41577"
     y="-2152.3064"
     text-anchor="middle"
     dominant-baseline="alphabetic"
     id="text180"
     style="text-decoration:none;text-decoration-line:none" />
  <text
     fill="#000000"
     fill-opacity="0.5"
     stroke="none"
     font-family="Arial"
     font-size="12px"
     pt=""
     font-style="normal"
     font-weight="400"
     text-decoration="none"
     x="-748.41577"
     y="-2152.3064"
     text-anchor="middle"
     dominant-baseline="alphabetic"
     id="text181"
     style="text-decoration:none;text-decoration-line:none" />
  <text
     fill="#000000"
     fill-opacity="0.5"
     stroke="none"
     font-family="Arial"
     font-size="12px"
     pt=""
     font-style="normal"
     font-weight="400"
     text-decoration="none"
     x="-748.41577"
     y="-2152.3064"
     text-anchor="middle"
     dominant-baseline="alphabetic"
     id="text182"
     style="text-decoration:none;text-decoration-line:none" />
  <text
     xml:space="preserve"
     style="font-style:normal;font-variant:normal;font-weight:normal;font-stretch:normal;font-size:6.66667px;line-height:125%;font-family:'IBM Plex Mono';-inkscape-font-specification:'IBM Plex Mono,  weight=453';font-variant-ligatures:normal;font-variant-caps:normal;font-variant-numeric:normal;font-variant-east-asian:normal;fill:#000000;stroke-width:0;stroke-opacity:0.85"
     x="467.70285"
     y="313.65778"
     id="text183"><tspan
       sodipodi:role="line"
       id="tspan182"
       x="467.70285"
       y="313.65778">Dame Stella Rimington​ ​ | Former MI5 Director-General</tspan><tspan
       sodipodi:role="line"
       x="467.70285"
       y="321.99112"
       id="tspan183">Richard Fadden​ ​ | Former CSIS Director</tspan><tspan
       sodipodi:role="line"
       x="467.70285"
       y="330.32446"
       id="tspan184">James Woolsey​ | Former CIA Director</tspan><tspan
       sodipodi:role="line"
       x="467.70285"
       y="338.65778"
       id="tspan185">Tamir Pardo | Former Director of the Mossad</tspan><tspan
       sodipodi:role="line"
       x="467.70285"
       y="346.99112"
       id="tspan186">Buck Revell | Former FBI Associate Deputy Director</tspan><tspan
       sodipodi:role="line"
       x="467.70285"
       y="355.32446"
       id="tspan187">Richard Nesbitt | Strategic Advisor, Financial Services</tspan><tspan
       sodipodi:role="line"
       x="467.70285"
       y="363.65781"
       id="tspan188">Ronit Atad | Strategic Advisor</tspan><tspan
       sodipodi:role="line"
       x="467.70285"
       y="371.99115"
       id="tspan189">Michael Loparco | Strategic Advisor</tspan><tspan
       sodipodi:role="line"
       x="467.70285"
       y="380.32449"
       id="tspan190">Prof. Peretz Lavie | Strategic Advisor</tspan><tspan
       sodipodi:role="line"
       x="467.70285"
       y="388.65781"
       id="tspan191">Ambassador Yuval Rotem​ | Venture Partner</tspan><tspan
       sodipodi:role="line"
       x="467.70285"
       y="396.99115"
       id="tspan192">Haim Tomer​ | Venture Partner</tspan><tspan
       sodipodi:role="line"
       x="467.70285"
       y="405.32449"
       id="tspan193">Dr. Nigel Meir​ | Venture Partner</tspan><tspan
       sodipodi:role="line"
       x="467.70285"
       y="413.65784"
       id="tspan194">Ilan Azouri​ | Venture Partner</tspan><tspan
       sodipodi:role="line"
       x="467.70285"
       y="421.99118"
       id="tspan195">Gary Barnea​ | Strategic Advisor</tspan><tspan
       sodipodi:role="line"
       x="467.70285"
       y="430.32452"
       id="tspan196">Lt. Gen. (Ret.) Michael Day | Strategic Advisor</tspan><tspan
       sodipodi:role="line"
       x="467.70285"
       y="438.65784"
       id="tspan197">Ariel Zamir​ | Strategic Advisor</tspan><tspan
       sodipodi:role="line"
       x="467.70285"
       y="446.99118"
       id="tspan198">Patrice E. Merrin​ | Strategic Advisor</tspan><tspan
       sodipodi:role="line"
       x="467.70285"
       y="455.32452"
       id="tspan199">Ross Johnson ​ | Strategic Advisor</tspan><tspan
       sodipodi:role="line"
       x="467.70285"
       y="463.65787"
       id="tspan200">Nadine Miller​ | Strategic Advisor</tspan><tspan
       sodipodi:role="line"
       x="467.70285"
       y="471.99121"
       id="tspan201">David Posluns​ | Strategic Advisor</tspan><tspan
       sodipodi:role="line"
       x="467.70285"
       y="480.32452"
       id="tspan202">Peter Tanenbaum​ | Strategic Advisor</tspan><tspan
       sodipodi:role="line"
       x="467.70285"
       y="488.65787"
       id="tspan203">Michael Shapiro​ | Strategic Advisor</tspan><tspan
       sodipodi:role="line"
       x="467.70285"
       y="496.99121"
       id="tspan204">Joshua Goldman​ | Strategic Advisor</tspan><tspan
       sodipodi:role="line"
       x="467.70285"
       y="505.32455"
       id="tspan205">Andrew Goldman​ | Strategic Advisor</tspan><tspan
       sodipodi:role="line"
       x="467.70285"
       y="513.6579"
       id="tspan206">David Amsalem​ | Strategic Advisor</tspan><tspan
       sodipodi:role="line"
       x="467.70285"
       y="521.99121"
       id="tspan207">Dr. Tahel Altman​ | VP Strategy &amp; Medtech Advisor</tspan><tspan
       sodipodi:role="line"
       x="467.70285"
       y="530.32458"
       id="tspan208">Dr. Michal Arad​ | VP, Investments</tspan></text>
  <text
     xml:space="preserve"
     style="font-style:normal;font-variant:normal;font-weight:normal;font-stretch:normal;font-size:6.66667px;line-height:125%;font-family:'IBM Plex Mono';-inkscape-font-specification:'IBM Plex Mono,  weight=453';font-variant-ligatures:normal;font-variant-caps:normal;font-variant-numeric:normal;font-variant-east-asian:normal;fill:#000000;stroke-width:0;stroke-opacity:0.85"
     x="416.14511"
     y="97.602577"
     id="text209"><tspan
       sodipodi:role="line"
       id="tspan209"
       x="416.14511"
       y="97.602577"
       style="text-align:end;text-anchor:end">Avi Libman | Executive Partner</tspan><tspan
       sodipodi:role="line"
       x="416.14511"
       y="105.93591"
       id="tspan210"
       style="text-align:end;text-anchor:end">Josh Gutenberg | Executive Partner, Finance &amp; Compliance</tspan><tspan
       sodipodi:role="line"
       x="416.14511"
       y="114.26926"
       id="tspan211"
       style="text-align:end;text-anchor:end">Dr. Amira Sharon ​ | Strategy &amp; Technology Partner</tspan><tspan
       sodipodi:role="line"
       x="416.14508"
       y="122.60259"
       id="tspan212"
       style="text-align:end;text-anchor:end">Illit Geller Halevy | Partner, Business Development; Awz X-Seed Venture Partner, Resilience Tech Fund</tspan><tspan
       sodipodi:role="line"
       x="416.14511"
       y="130.93593"
       id="tspan213"
       style="text-align:end;text-anchor:end">Ran Bar Or | General Partner, President Global Business</tspan><tspan
       sodipodi:role="line"
       x="416.14511"
       y="139.26927"
       id="tspan214"
       style="text-align:end;text-anchor:end">Ofer Simchony​ | Partner, Strategic Relationships</tspan><tspan
       sodipodi:role="line"
       x="416.14511"
       y="147.6026"
       id="tspan215"
       style="text-align:end;text-anchor:end">Osher Shapira | General Partner, Awz Ventures III, Awz Resilience Tech. Fund</tspan><tspan
       sodipodi:role="line"
       x="416.14511"
       y="155.93594"
       id="tspan216"
       style="text-align:end;text-anchor:end">Ofer Kotler | General Partner, Awz X-Seed</tspan><tspan
       sodipodi:role="line"
       x="416.14511"
       y="164.26929"
       id="tspan217"
       style="text-align:end;text-anchor:end">Eyal Beinart​ | CEO, Awz Data Centers</tspan><tspan
       sodipodi:role="line"
       x="416.14511"
       y="172.60262"
       id="tspan218"
       style="text-align:end;text-anchor:end">Assa Abramsky | General Partner, Awz Private Equity</tspan></text>
  <text
     xml:space="preserve"
     style="font-style:normal;font-variant:normal;font-weight:normal;font-stretch:normal;font-size:6.66667px;line-height:125%;font-family:'IBM Plex Mono';-inkscape-font-specification:'IBM Plex Mono,  weight=453';font-variant-ligatures:normal;font-variant-caps:normal;font-variant-numeric:normal;font-variant-east-asian:normal;text-align:start;text-anchor:start;fill:#000000;stroke-width:0;stroke-opacity:0.85"
     x="561.26489"
     y="68.873299"
     id="text219"><tspan
       sodipodi:role="line"
       id="tspan219"
       x="561.26489"
       y="68.873299">Howard Tanenbaum | Director</tspan><tspan
       sodipodi:role="line"
       x="561.26489"
       y="77.206635"
       id="tspan220">Kenny Finkelstein | Director</tspan><tspan
       sodipodi:role="line"
       x="561.26489"
       y="85.539978"
       id="tspan221">Ronnie Faust | Director</tspan><tspan
       sodipodi:role="line"
       x="561.26489"
       y="93.873314"
       id="tspan222">Murray Goldman | Director</tspan><tspan
       sodipodi:role="line"
       x="561.26489"
       y="102.20665"
       id="tspan223">Howard Sokolowski | Director</tspan><tspan
       sodipodi:role="line"
       x="561.26489"
       y="110.53999"
       id="tspan224">Rick Ekstein | ​Director</tspan><tspan
       sodipodi:role="line"
       x="561.26489"
       y="118.87333"
       id="tspan225">Aaron Mandelbaum | Director</tspan></text>
</svg>
